[
  {
    "fullname": "Manh Nguyen",
    "email": "manhduc944@gmail.com",
    "phone": "0812840088",
    "content": ""
  },
  {
    "fullname": "Manh Nguyen",
    "email": "manhduc944@gmail.com",
    "phone": "0812840088",
    "content": "hay cho t them thong tin "
  },
  {
    "fullname": "Manh Nguyen",
    "email": "manhduc944@gmail.com",
    "phone": "0812840088",
    "content": "test lai code"
  }
]
